[
  {
    "model": "portfolio.assessmentrating",
    "pk": "4653cb91-0337-41c0-b08a-1a56108ca26c",
    "fields": {
      "created": "2023-07-10T17:52:41.418Z",
      "modified": "2023-07-10T17:52:41.418Z",
      "status": "Draft",
      "status_changed": "2023-07-10T17:52:33Z",
      "is_removed": false,
      "weight": 0.8,
      "description": "Révélateur"
    }
  },
  {
    "model": "portfolio.assessmentrating",
    "pk": "5b67c54d-3421-4245-81e7-aec6d5349e44",
    "fields": {
      "created": "2023-07-10T17:52:33.369Z",
      "modified": "2023-07-13T19:09:34.472Z",
      "status": "Draft",
      "status_changed": "2023-07-10T17:52:10Z",
      "is_removed": false,
      "weight": 1.0,
      "description": "Manifeste"
    }
  },
  {
    "model": "portfolio.assessmentrating",
    "pk": "cb931285-9e9b-4cef-a187-1169b58d9760",
    "fields": {
      "created": "2023-07-10T17:54:12.574Z",
      "modified": "2023-07-13T17:51:22.378Z",
      "status": "Draft",
      "status_changed": "2023-07-10T17:54:08Z",
      "is_removed": false,
      "weight": 0.0,
      "description": "Absent"
    }
  },
  {
    "model": "portfolio.assessmentrating",
    "pk": "f3239167-e740-4e09-b6b5-c1d32c18e8a3",
    "fields": {
      "created": "2023-07-10T17:54:07.935Z",
      "modified": "2023-07-12T16:32:44.214Z",
      "status": "Draft",
      "status_changed": "2023-07-10T17:53:56Z",
      "is_removed": false,
      "weight": 0.55,
      "description": "Insuffisant"
    }
  },
  {
    "model": "portfolio.assessmentrating",
    "pk": "fd48de84-58da-471b-a8f5-074d790cdbd6",
    "fields": {
      "created": "2023-07-10T17:52:48.578Z",
      "modified": "2023-07-10T17:52:48.578Z",
      "status": "Draft",
      "status_changed": "2023-07-10T17:52:41Z",
      "is_removed": false,
      "weight": 0.6,
      "description": "Émergeant"
    }
  }
]