[
  {
    "model": "portfolio.achievementtemplate",
    "pk": "3960f91f-6789-4429-a38d-1a2919c155d2",
    "fields": {
      "created": "2021-12-15T20:31:40.769Z",
      "modified": "2021-12-20T18:11:36.300Z",
      "status": "Draft",
      "status_changed": "2021-12-15T20:31:33Z",
      "is_removed": false,
      "name": "Attitudes professionnelles",
      "number": 2,
      "has_show_tags": true,
      "tags_options": [
        1,
        2
      ]
    }
  },
  {
    "model": "portfolio.achievementtemplate",
    "pk": "4bf8d922-fd7f-4ab8-bf2a-aabe0d53c963",
    "fields": {
      "created": "2021-12-15T20:31:31.530Z",
      "modified": "2021-12-24T19:21:57.321Z",
      "status": "Draft",
      "status_changed": "2021-12-15T20:30:30Z",
      "is_removed": false,
      "name": "Pas d'étiquettes",
      "number": 1,
      "has_show_tags": false,
      "tags_options": []
    }
  },
  {
    "model": "portfolio.achievementtemplate",
    "pk": "69d33771-5454-449b-9c2f-e6dd468b55e2",
    "fields": {
      "created": "2021-12-20T18:11:54.908Z",
      "modified": "2021-12-20T18:11:54.908Z",
      "status": "Draft",
      "status_changed": "2021-12-20T18:11:38Z",
      "is_removed": false,
      "name": "Attitudes professionnelles + profil d'entrée",
      "number": 3,
      "has_show_tags": true,
      "tags_options": [
        1,
        2,
        3
      ]
    }
  },
  {
    "model": "portfolio.achievementtemplate",
    "pk": "b1f75262-4cd7-45f6-90b4-6390d34c6599",
    "fields": {
      "created": "2021-12-20T18:13:01.386Z",
      "modified": "2021-12-24T19:22:06.854Z",
      "status": "Draft",
      "status_changed": "2021-12-20T18:12:48Z",
      "is_removed": false,
      "name": "Compétence + profil d'entrée",
      "number": 4,
      "has_show_tags": true,
      "tags_options": [
        3,
        4
      ]
    }
  },
  {
    "model": "portfolio.achievementtemplate",
    "pk": "3960f91f-6789-4429-a38d-1a2919c155d2",
    "fields": {
      "created": "2021-12-15T20:31:40.769Z",
      "modified": "2021-12-20T18:11:36.300Z",
      "status": "Draft",
      "status_changed": "2021-12-15T20:31:33Z",
      "is_removed": false,
      "name": "Attitudes professionnelles",
      "number": 2,
      "has_show_tags": true,
      "tags_options": [
        1,
        2
      ]
    }
  },
  {
    "model": "portfolio.achievementtemplate",
    "pk": "4bf8d922-fd7f-4ab8-bf2a-aabe0d53c963",
    "fields": {
      "created": "2021-12-15T20:31:31.530Z",
      "modified": "2021-12-24T19:21:57.321Z",
      "status": "Draft",
      "status_changed": "2021-12-15T20:30:30Z",
      "is_removed": false,
      "name": "Pas d'étiquettes",
      "number": 1,
      "has_show_tags": false,
      "tags_options": []
    }
  },
  {
    "model": "portfolio.achievementtemplate",
    "pk": "69d33771-5454-449b-9c2f-e6dd468b55e2",
    "fields": {
      "created": "2021-12-20T18:11:54.908Z",
      "modified": "2021-12-20T18:11:54.908Z",
      "status": "Draft",
      "status_changed": "2021-12-20T18:11:38Z",
      "is_removed": false,
      "name": "Attitudes professionnelles + profil d'entrée",
      "number": 3,
      "has_show_tags": true,
      "tags_options": [
        1,
        2,
        3
      ]
    }
  },
  {
    "model": "portfolio.achievementtemplate",
    "pk": "b1f75262-4cd7-45f6-90b4-6390d34c6599",
    "fields": {
      "created": "2021-12-20T18:13:01.386Z",
      "modified": "2021-12-24T19:22:06.854Z",
      "status": "Draft",
      "status_changed": "2021-12-20T18:12:48Z",
      "is_removed": false,
      "name": "Compétence + profil d'entrée",
      "number": 4,
      "has_show_tags": true,
      "tags_options": [
        3,
        4
      ]
    }
  }
]