[
  {
    "model": "portfolio.helplink",
    "pk": "23a4bc80-4520-490b-9c0b-a9d15a7b53b7",
    "fields": {
      "created": "2023-06-21T15:13:42.959Z",
      "modified": "2023-06-21T15:13:42.959Z",
      "status": "Draft",
      "status_changed": "2023-06-21T15:13:32Z",
      "is_removed": false,
      "keyword": "profile",
      "link": "/2-2-definir-son-profil"
    }
  },
  {
    "model": "portfolio.helplink",
    "pk": "3fd413c2-a61a-4b33-b304-2c4d18e6f533",
    "fields": {
      "created": "2023-06-21T15:13:51.368Z",
      "modified": "2023-06-21T15:13:51.368Z",
      "status": "Draft",
      "status_changed": "2023-06-21T15:13:43Z",
      "is_removed": false,
      "keyword": "questionnaire",
      "link": "/3-le-questionnaire"
    }
  },
  {
    "model": "portfolio.helplink",
    "pk": "48dd3e7a-31b2-4447-88dd-28b8769cffa6",
    "fields": {
      "created": "2023-06-21T15:10:51.023Z",
      "modified": "2023-06-21T15:10:51.023Z",
      "status": "Draft",
      "status_changed": "2023-06-21T15:09:37Z",
      "is_removed": false,
      "keyword": "editor",
      "link": "/lediteur"
    }
  },
  {
    "model": "portfolio.helplink",
    "pk": "b436d909-6d81-4210-945f-4b2deb4919ea",
    "fields": {
      "created": "2023-06-21T15:12:28.064Z",
      "modified": "2023-06-21T15:12:28.064Z",
      "status": "Draft",
      "status_changed": "2023-06-21T15:11:56Z",
      "is_removed": false,
      "keyword": "create_achievement",
      "link": "/2-5-creer-une-premiere-realisation"
    }
  },
  {
    "model": "portfolio.helplink",
    "pk": "d2363d8a-c1d5-46e2-b008-60938eaaf65b",
    "fields": {
      "created": "2023-06-21T15:11:56.608Z",
      "modified": "2023-06-21T15:14:07.898Z",
      "status": "Draft",
      "status_changed": "2023-06-21T15:10:51Z",
      "is_removed": false,
      "keyword": "examples",
      "link": "/2-4-consulter-les-exemples"
    }
  },
  {
    "model": "portfolio.helplink",
    "pk": "e22db242-98fd-40ee-a48d-3d0a23b2b362",
    "fields": {
      "created": "2023-06-21T15:07:42.851Z",
      "modified": "2023-06-21T15:07:42.851Z",
      "status": "Draft",
      "status_changed": "2023-06-21T15:04:14Z",
      "is_removed": false,
      "keyword": "documents",
      "link": "/6-les-document"
    }
  },
  {
    "model": "portfolio.helplink",
    "pk": "eafc5ff6-10bd-4d20-941d-403c4b7590a2",
    "fields": {
      "created": "2023-06-21T15:13:32.646Z",
      "modified": "2023-06-21T15:13:32.646Z",
      "status": "Draft",
      "status_changed": "2023-06-21T15:12:28Z",
      "is_removed": false,
      "keyword": "levels",
      "link": "/5-2-les-niveaux-dexpertise"
    }
  }
]