[
  {
    "model": "portfolio.documenttype",
    "pk": "11356c24-2555-48bc-ac9d-8fb1f11574b7",
    "fields": {
      "created": "2023-09-05T04:22:34.333Z",
      "modified": "2023-09-05T04:22:34.333Z",
      "status": "Draft",
      "status_changed": "2023-09-05T04:21:54Z",
      "is_removed": false,
      "name": "Curriculum Vitae",
      "milestone": 1,
      "is_specific": true,
      "accepted_format": ""
    }
  },
  {
    "model": "portfolio.documenttype",
    "pk": "ab6844d3-fd56-478c-a6ea-70cd4668adc9",
    "fields": {
      "created": "2023-09-05T04:22:34.333Z",
      "modified": "2023-09-05T04:22:34.333Z",
      "status": "Draft",
      "status_changed": "2023-09-05T04:21:54Z",
      "is_removed": false,
      "name": "Ligne de vie",
      "milestone": 1,
      "is_specific": true,
      "accepted_format": ""
    }
  },
  {
    "model": "portfolio.documenttype",
    "pk": "392e2572-f3fd-487f-b4e9-b9766ed78642",
    "fields": {
      "created": "2023-09-05T04:22:34.333Z",
      "modified": "2023-09-05T04:22:34.333Z",
      "status": "Draft",
      "status_changed": "2023-09-05T04:21:54Z",
      "is_removed": false,
      "name": "Fiche de préparation à l'entretien",
      "milestone": 1,
      "is_specific": true,
      "accepted_format": ""
    }
  }
]