<!--
  - © Copyright Yves de Champlain et al. 2018-2022
  -     For more informations, see https://doc.epassages.ca/index.php/contributions
  - SPDX-License-Identifier: LiLiQ-Rplus-1.1
  - License-Filename: LICENCE
  -->

<svg id="Layer_1" data-name="Layer 1" xmlns="http://www.w3.org/2000/svg" viewBox="0 0 100 100"><defs><style>.cls-1{fill:none;stroke:#203882;stroke-linecap:round;stroke-linejoin:round;stroke-width:8px;}</style></defs><polyline class="cls-1" points="66.94 4.38 95.62 4.38 95.62 33.06"/><line class="cls-1" x1="95.42" y1="4.58" x2="55.59" y2="44.41"/><polyline class="cls-1" points="33.06 95.62 4.38 95.62 4.38 66.94"/><line class="cls-1" x1="4.58" y1="95.42" x2="44.41" y2="55.59"/></svg>