[
  {
    "model": "program.concentration",
    "pk": 1,
    "fields": {
      "created": "2020-09-13T17:34:03.719Z",
      "modified": "2020-09-13T17:34:03.719Z",
      "status": "Draft",
      "status_changed": "2020-09-13T17:34:03.719Z",
      "is_removed": false,
      "type": "T",
      "code": "142.H0",
      "max_credits": null,
      "max_num_achievements": null
    }
  }
]